[
  {
    "description": "Internal maintenance: update test/requirements packages versions.",
    "type": "patch"
  },
  {
    "description": "Update README with nodejs 18 support.",
    "type": "patch"
  }
]