{
  "changes": [
    {
      "description": "Internal maintenance: Bump release pipe version. Add multi-platform build: linux/arm64 and linux/amd64.",
      "type": "patch"
    }
  ],
  "created_at": "2024-08-20T17:41:34+00:00",
  "version": "5.1.1"
}